{
    "title": "Βρες το γράμμα",
    "letter": "Δ,δ",
    "words": "δέμα|δάσος|δαχτυλίδι|λαδώνω|σίδερο|μαδάω|ποδιά|το δέμα με το δαχτυλίδι χάθηκε στο δάσος|ο δυνατός Ολλανδός έδωσε δύο δέματα|ο Ινδός δένει το παραγάδι"
}